{
    "page": 1,
    "per_page": 6,
    "total": 12,
    "total_pages": 2,
    "data": [
        {
            "id": 1,
            "email": "george.bluth@reqres.in",
            "first_name": "Johnny",
            "last_name": "B",
            "avatar": "https://reqres.in/img/faces/1-image.jpg"
        }
    ],
    "support": {
        "url": "https://reqres.in/#support-heading",
        "text": "To keep ReqRes free, contributions towards server costs are appreciated!"
    },
    "id": "472",
    "createdAt": "2022-07-05T06:03:57.325Z"
}